{
   "ci":{
      "collect":{
         "url":[
            "INDEX_URL",
            "POSTS_URL"
         ],
         "settings":{
            "chromeFlags":"--no-sandbox"
         },
         "numberOfRuns":1,
         "staticDistDir":"./public"
      },
      "assert":{
         "preset":"lighthouse:recommended",
         "assertions":{
            "first-contentful-paint":[
               "warn",
               {
                  "maxNumericValue":2500,
                  "aggregationMethod":"optimistic"
               }
            ],
            "interactive":[
               "warn",
               {
                  "maxNumericValue":5000,
                  "aggregationMethod":"optimistic"
               }
            ],
            "uses-long-cache-ttl":"off",
            "uses-http2":"off"
         }
      }
   }
}
